{
  "photos": {
    "page": 2,
    "pages": 132227,
    "perpage": 3,
    "total": 132227,
    "photo": [
      {
        "id": "51684801817",
        "owner": "12852675@N08",
        "secret": "00428acdfc",
        "server": "65535",
        "farm": 66,
        "title": "Small Kitten 11-16-2021 DSC_5603",
        "ispublic": 1,
        "isfriend": 0,
        "isfamily": 0
      },
      {
        "id": "51684801818",
        "owner": "12852675@N08",
        "secret": "00428acdfc",
        "server": "65535",
        "farm": 66,
        "title": "Small Kitten 11-16-2001 DSC_5603",
        "ispublic": 1,
        "isfriend": 0,
        "isfamily": 0
      },
      {
        "id": "51684801819",
        "owner": "12852675@N08",
        "secret": "00428acdfc",
        "server": "65535",
        "farm": 66,
        "title": "Small Kitten 11-16-2020 DSC_5603",
        "ispublic": 1,
        "isfriend": 0,
        "isfamily": 0
      }
    ]
  },
  "stat": "ok"
}